module echo-framework

go 1.16

require (
	github.com/alecthomas/template v0.0.0-20190718012654-fb15b899a751
	github.com/davecgh/go-spew v1.1.1
	github.com/dgrijalva/jwt-go v3.2.0+incompatible
	github.com/jmoiron/sqlx v1.3.4
	github.com/kr/text v0.2.0 // indirect
	github.com/labstack/echo/v4 v4.4.0
	github.com/labstack/gommon v0.3.0
	github.com/lib/pq v1.10.2
	github.com/niemeyer/pretty v0.0.0-20200227124842-a10e7caefd8e // indirect
	github.com/spf13/viper v1.8.1
	github.com/swaggo/echo-swagger v1.1.0
	github.com/swaggo/swag v1.7.0
	golang.org/x/crypto v0.0.0-20210322153248-0c34fe9e7dc2
	gopkg.in/check.v1 v1.0.0-20200227125254-8fa46927fb4f // indirect
)
