

time :  2021-08-01T14:31:25.383976568+07:00 
QUERY : 
 
		SELECT
			*
		FROM
			"t_user"
		WHERE
			email = $1
		 
params : 
 (string) (len=26) "dev.brianpratama@gmail.com"
 
 File: auth_repo.go  Function: echo-framework/src/modules/auth/repository.FindUser Line: 58


time :  2021-08-01T16:11:37.797091676+07:00 
QUERY : 
 
		SELECT
			*
		FROM
			"t_user"
		WHERE
			email = $1
		 
params : 
 (string) (len=26) "dev.brianpratama@gmail.com"
 
 File: auth_repo.go  Function: echo-framework/src/modules/auth/repository.FindUser Line: 58


time :  2021-08-01T16:29:57.349265097+07:00 
QUERY : 
 
		SELECT
			*
		FROM
			"t_user"
		WHERE
			email = $1
		 
params : 
 (string) (len=26) "dev.brianpratama@gmail.com"
 
 File: auth_repo.go  Function: echo-framework/src/modules/auth/repository.FindUser Line: 58


time :  2021-08-01T18:04:38.737088759+07:00 
QUERY : 
 
		SELECT
			*
		FROM
			"t_user"
		WHERE
			email = $1
		 
params : 
 (string) (len=26) "dev.brianpratama@gmail.com"
 
 File: auth_repo.go  Function: echo-framework/src/modules/auth/repository.FindUser Line: 58


time :  2021-08-01T18:05:32.016662545+07:00 
QUERY : 
 
	SELECT
		*
	FROM t_user
	 
params : 
 (string) ""
 
 File: auth-user_repo.go  Function: echo-framework/src/modules/auth-user/repository.GetAll Line: 29


time :  2021-08-01T18:09:04.625213306+07:00 
QUERY : 
 
	SELECT
		*
	FROM t_user
	 
params : 
 (string) ""
 
 File: auth-user_repo.go  Function: echo-framework/src/modules/auth-user/repository.GetAll Line: 29


time :  2021-08-01T20:52:05.365654286+07:00 
QUERY : 
 
		SELECT
			*
		FROM
			"t_user"
		WHERE
			email = $1
		 
params : 
 (string) (len=26) "dev.brianpratama@gmail.com"
 
 File: auth_repo.go  Function: echo-framework/src/modules/auth/repository.FindUser Line: 58


time :  2021-08-01T20:52:51.328829785+07:00 
QUERY : 
 
	SELECT
		*
	FROM t_user
	 
params : 
 (string) ""
 
 File: auth-user_repo.go  Function: echo-framework/src/modules/auth-user/repository.GetAll Line: 29


time :  2021-08-01T21:03:44.097063971+07:00 
QUERY : 
 
		SELECT
			*
		FROM
			"t_user"
		WHERE
			email = $1
		 
params : 
 (string) (len=26) "dev.brianpratama@gmail.com"
 
 File: auth_repo.go  Function: echo-framework/src/modules/auth/repository.FindUser Line: 58


time :  2021-08-01T21:03:56.920161279+07:00 
QUERY : 
 
	SELECT
		*
	FROM t_user
	 
params : 
 (string) ""
 
 File: auth-user_repo.go  Function: echo-framework/src/modules/auth-user/repository.GetAll Line: 29


time :  2021-08-01T21:03:59.89815207+07:00 
QUERY : 
 
	SELECT
		*
	FROM t_user
	 
params : 
 (string) ""
 
 File: auth-user_repo.go  Function: echo-framework/src/modules/auth-user/repository.GetAll Line: 29


time :  2021-08-01T21:04:00.43316063+07:00 
QUERY : 
 
	SELECT
		*
	FROM t_user
	 
params : 
 (string) ""
 
 File: auth-user_repo.go  Function: echo-framework/src/modules/auth-user/repository.GetAll Line: 29


time :  2021-08-01T21:04:00.802648049+07:00 
QUERY : 
 
	SELECT
		*
	FROM t_user
	 
params : 
 (string) ""
 
 File: auth-user_repo.go  Function: echo-framework/src/modules/auth-user/repository.GetAll Line: 29


time :  2021-08-01T21:04:01.27396576+07:00 
QUERY : 
 
	SELECT
		*
	FROM t_user
	 
params : 
 (string) ""
 
 File: auth-user_repo.go  Function: echo-framework/src/modules/auth-user/repository.GetAll Line: 29


time :  2021-08-01T21:09:19.102369236+07:00 
QUERY : 
 
	SELECT
		*
	FROM t_user
	 
params : 
 (string) ""
 
 File: auth-user_repo.go  Function: echo-framework/src/modules/auth-user/repository.GetAll Line: 29


time :  2021-08-01T21:09:24.933510019+07:00 
QUERY : 
 
		SELECT
			*
		FROM
			"t_user"
		WHERE
			email = $1
		 
params : 
 (string) (len=26) "dev.brianpratama@gmail.com"
 
 File: auth_repo.go  Function: echo-framework/src/modules/auth/repository.FindUser Line: 58


time :  2021-08-01T21:09:37.001100595+07:00 
QUERY : 
 
	SELECT
		*
	FROM t_user
	 
params : 
 (string) ""
 
 File: auth-user_repo.go  Function: echo-framework/src/modules/auth-user/repository.GetAll Line: 29


time :  2021-08-01T21:12:36.396045887+07:00 
QUERY : 
 
	SELECT
		*
	FROM t_user
	 
params : 
 (string) ""
 
 File: auth-user_repo.go  Function: echo-framework/src/modules/auth-user/repository.GetAll Line: 29


time :  2021-08-01T21:14:58.117150183+07:00 
QUERY : 
 
	SELECT
		id,
		email,
		username,
		created_by,
		updated_by,
		created_at,
		updated_at
	FROM t_user
	 
params : 
 (string) ""
 
 File: auth-user_repo.go  Function: echo-framework/src/modules/auth-user/repository.GetAll Line: 35


time :  2021-08-01T21:15:25.46968591+07:00 
QUERY : 
 
	SELECT
		*
	FROM t_user
	 
params : 
 (string) ""
 
 File: auth-user_repo.go  Function: echo-framework/src/modules/auth-user/repository.GetAll Line: 29


time :  2021-08-01T21:15:47.802481706+07:00 
QUERY : 
 
	SELECT
		*
	FROM t_user
	 
params : 
 (string) ""
 
 File: auth-user_repo.go  Function: echo-framework/src/modules/auth-user/repository.GetAll Line: 29


time :  2021-08-01T21:16:27.453106525+07:00 
QUERY : 
 
	SELECT
		id,
		email,
		username,
		created_by,
		updated_by,
		created_at,
		updated_at
	FROM t_user
	 
params : 
 (string) ""
 
 File: auth-user_repo.go  Function: echo-framework/src/modules/auth-user/repository.GetAll Line: 35


time :  2021-08-01T21:16:31.319007329+07:00 
QUERY : 
 
	SELECT
		id,
		email,
		username,
		created_by,
		updated_by,
		created_at,
		updated_at
	FROM t_user
	 
params : 
 (string) ""
 
 File: auth-user_repo.go  Function: echo-framework/src/modules/auth-user/repository.GetAll Line: 35


time :  2021-08-01T21:16:31.521700378+07:00 
QUERY : 
 
	SELECT
		id,
		email,
		username,
		created_by,
		updated_by,
		created_at,
		updated_at
	FROM t_user
	 
params : 
 (string) ""
 
 File: auth-user_repo.go  Function: echo-framework/src/modules/auth-user/repository.GetAll Line: 35


time :  2021-08-01T21:23:33.564707066+07:00 
QUERY : 
 
	SELECT
		id,
		email,
		username,
		created_by,
		updated_by,
		created_at,
		updated_at
	FROM t_user
	 
params : 
 (string) ""
 
 File: auth-user_repo.go  Function: echo-framework/src/modules/auth-user/repository.GetAll Line: 35


time :  2021-08-01T21:23:39.37610314+07:00 
QUERY : 
 
	SELECT
		id,
		email,
		username,
		created_by,
		updated_by,
		created_at,
		updated_at
	FROM t_user
	 
params : 
 (string) ""
 
 File: auth-user_repo.go  Function: echo-framework/src/modules/auth-user/repository.GetAll Line: 35


time :  2021-08-01T21:24:39.234468475+07:00 
QUERY : 
 
	SELECT
		id,
		email,
		username,
		created_by,
		updated_by,
		created_at,
		updated_at
	FROM t_user
	 
params : 
 (string) ""
 
 File: auth-user_repo.go  Function: echo-framework/src/modules/auth-user/repository.GetAll Line: 35
